delay_tb.vcd
$date
  Mon Jun 27 23:07:00 2022
$end
$version
  GHDL v0
$end
$timescale
  1 fs
$end
$var reg 1 ! clk $end
$var reg 1 " finish $end
$var reg 8 # dt[7:0] $end
$var reg 1 $ cargar $end
$scope module uut $end
$var reg 1 % clk $end
$var reg 8 & dt[7:0] $end
$var reg 1 ' cargar $end
$var reg 1 ( finish $end
$var reg 8 ) state[7:0] $end
$upscope $end
$enddefinitions $end
#0
0!
1"
b00001000 #
0$
0%
b00001000 &
0'
1(
b00000000 )
#10000000
1!
1%
#15000000
0"
1$
1'
0(
b00001000 )
#20000000
0!
0$
0%
0'
#30000000
1!
1%
b00000111 )
#40000000
0!
0%
#50000000
1!
1%
b00000110 )
#60000000
0!
0%
#70000000
1!
1%
b00000101 )
#80000000
0!
0%
#90000000
1!
1%
b00000100 )
#100000000
0!
0%
#110000000
1!
1%
b00000011 )
#120000000
0!
0%
#130000000
1!
1%
b00000010 )
#140000000
0!
0%
#150000000
1!
1%
b00000001 )
#160000000
0!
0%
#170000000
1!
1%
b00000000 )
#180000000
0!
1"
0%
1(
